EESchema Schematic File Version 2
LIBS:rail-splitter-rescue
LIBS:power
LIBS:device
LIBS:transistors
LIBS:conn
LIBS:linear
LIBS:regul
LIBS:74xx
LIBS:cmos4000
LIBS:adc-dac
LIBS:memory
LIBS:xilinx
LIBS:microcontrollers
LIBS:dsp
LIBS:microchip
LIBS:analog_switches
LIBS:motorola
LIBS:texas
LIBS:intel
LIBS:audio
LIBS:interface
LIBS:digital-audio
LIBS:philips
LIBS:display
LIBS:cypress
LIBS:siliconi
LIBS:opto
LIBS:atmel
LIBS:contrib
LIBS:valves
LIBS:my-ICs
LIBS:my-switches
LIBS:Switch
LIBS:my-power
LIBS:rail-splitter-cache
EELAYER 25 0
EELAYER END
$Descr A4 11693 8268
encoding utf-8
Sheet 1 1
Title ""
Date ""
Rev ""
Comp ""
Comment1 ""
Comment2 ""
Comment3 ""
Comment4 ""
$EndDescr
$Comp
L R R1
U 1 1 586AE383
P 3100 3100
F 0 "R1" V 3180 3100 50  0000 C CNN
F 1 "15K" V 3100 3100 50  0000 C CNN
F 2 "Resistors_ThroughHole:Resistor_Horizontal_RM10mm" V 3030 3100 50  0001 C CNN
F 3 "" H 3100 3100 50  0000 C CNN
	1    3100 3100
	1    0    0    -1  
$EndComp
$Comp
L R R2
U 1 1 586AE38A
P 3100 4200
F 0 "R2" V 3180 4200 50  0000 C CNN
F 1 "15K" V 3100 4200 50  0000 C CNN
F 2 "Resistors_ThroughHole:Resistor_Horizontal_RM10mm" V 3030 4200 50  0001 C CNN
F 3 "" H 3100 4200 50  0000 C CNN
	1    3100 4200
	1    0    0    -1  
$EndComp
$Comp
L C C1
U 1 1 586AE3CD
P 5500 2950
F 0 "C1" H 5525 3050 50  0000 L CNN
F 1 "100pF" H 5400 2850 50  0000 L CNN
F 2 "Capacitors_ThroughHole:C_Rect_L7_W2_P5" H 5538 2800 50  0001 C CNN
F 3 "" H 5500 2950 50  0000 C CNN
	1    5500 2950
	1    0    0    -1  
$EndComp
$Comp
L C C2
U 1 1 586AE3D4
P 5500 4350
F 0 "C2" H 5525 4450 50  0000 L CNN
F 1 "100pF" H 5400 4250 50  0000 L CNN
F 2 "Capacitors_ThroughHole:C_Rect_L7_W2_P5" H 5538 4200 50  0001 C CNN
F 3 "" H 5500 4350 50  0000 C CNN
	1    5500 4350
	1    0    0    -1  
$EndComp
$Comp
L GND #PWR01
U 1 1 586C1590
P 6900 3850
F 0 "#PWR01" H 6900 3600 50  0001 C CNN
F 1 "GND" H 6900 3700 50  0000 C CNN
F 2 "" H 6900 3850 50  0000 C CNN
F 3 "" H 6900 3850 50  0000 C CNN
	1    6900 3850
	1    0    0    -1  
$EndComp
$Comp
L R R5
U 1 1 58720B98
P 4900 3400
F 0 "R5" V 4980 3400 50  0000 C CNN
F 1 "2.2" V 4900 3400 50  0000 C CNN
F 2 "Resistors_ThroughHole:Resistor_Horizontal_RM25mm" V 4830 3400 50  0001 C CNN
F 3 "" H 4900 3400 50  0000 C CNN
	1    4900 3400
	1    0    0    -1  
$EndComp
$Comp
L R R6
U 1 1 58720F15
P 4900 3900
F 0 "R6" V 4980 3900 50  0000 C CNN
F 1 "2.2" V 4900 3900 50  0000 C CNN
F 2 "Resistors_ThroughHole:Resistor_Horizontal_RM25mm" V 4830 3900 50  0001 C CNN
F 3 "" H 4900 3900 50  0000 C CNN
	1    4900 3900
	1    0    0    -1  
$EndComp
$Comp
L D D1
U 1 1 58721EE1
P 4100 3000
F 0 "D1" H 4100 3100 50  0000 C CNN
F 1 "1N4148" H 4100 2900 50  0000 C CNN
F 2 "Diodes_ThroughHole:Diode_DO-35_SOD27_Horizontal_RM10" H 4100 3000 50  0001 C CNN
F 3 "" H 4100 3000 50  0000 C CNN
	1    4100 3000
	0    -1   -1   0   
$EndComp
$Comp
L D D2
U 1 1 58721F48
P 4100 3900
F 0 "D2" H 4100 4000 50  0000 C CNN
F 1 "1N4148" H 4100 3800 50  0000 C CNN
F 2 "Diodes_ThroughHole:Diode_DO-35_SOD27_Horizontal_RM10" H 4100 3900 50  0001 C CNN
F 3 "" H 4100 3900 50  0000 C CNN
	1    4100 3900
	0    -1   -1   0   
$EndComp
$Comp
L R R3
U 1 1 58722AA2
P 4100 2500
F 0 "R3" V 4180 2500 50  0000 C CNN
F 1 "5.6K" V 4100 2500 50  0000 C CNN
F 2 "Resistors_ThroughHole:Resistor_Horizontal_RM10mm" V 4030 2500 50  0001 C CNN
F 3 "" H 4100 2500 50  0000 C CNN
	1    4100 2500
	1    0    0    -1  
$EndComp
$Comp
L R R4
U 1 1 58722B6D
P 4100 4800
F 0 "R4" V 4180 4800 50  0000 C CNN
F 1 "5.6K" V 4100 4800 50  0000 C CNN
F 2 "Resistors_ThroughHole:Resistor_Horizontal_RM10mm" V 4030 4800 50  0001 C CNN
F 3 "" H 4100 4800 50  0000 C CNN
	1    4100 4800
	1    0    0    -1  
$EndComp
$Comp
L CONN_01X03 P2
U 1 1 5872899B
P 8050 3650
F 0 "P2" H 8050 3850 50  0000 C CNN
F 1 "OUTPUT" V 8150 3650 50  0000 C CNN
F 2 "library:JST-B3P-VH" H 8050 3650 50  0001 C CNN
F 3 "" H 8050 3650 50  0000 C CNN
	1    8050 3650
	1    0    0    -1  
$EndComp
$Comp
L TIP122 Q1
U 1 1 5895D0FD
P 4800 2750
F 0 "Q1" H 5050 2825 50  0000 L CNN
F 1 "TIP120" H 5050 2750 50  0000 L CNN
F 2 "TO_SOT_Packages_THT:TO-220_Neutral123_Vertical" H 4750 3000 50  0001 L CIN
F 3 "" H 4800 2750 50  0000 L CNN
	1    4800 2750
	1    0    0    -1  
$EndComp
$Comp
L D D3
U 1 1 5895D3EE
P 4100 3400
F 0 "D3" H 4100 3500 50  0000 C CNN
F 1 "1N4148" H 4100 3300 50  0000 C CNN
F 2 "Diodes_ThroughHole:Diode_DO-35_SOD27_Horizontal_RM10" H 4100 3400 50  0001 C CNN
F 3 "" H 4100 3400 50  0000 C CNN
	1    4100 3400
	0    -1   -1   0   
$EndComp
$Comp
L D D4
U 1 1 5895D4E8
P 4100 4300
F 0 "D4" H 4100 4400 50  0000 C CNN
F 1 "1N4148" H 4100 4200 50  0000 C CNN
F 2 "Diodes_ThroughHole:Diode_DO-35_SOD27_Horizontal_RM10" H 4100 4300 50  0001 C CNN
F 3 "" H 4100 4300 50  0000 C CNN
	1    4100 4300
	0    -1   -1   0   
$EndComp
$Comp
L TIP127 Q2
U 1 1 5895D974
P 4800 4550
F 0 "Q2" H 5050 4625 50  0000 L CNN
F 1 "TIP125" H 5050 4550 50  0000 L CNN
F 2 "TO_SOT_Packages_THT:TO-220_Neutral123_Vertical" H 4750 4750 50  0001 L CIN
F 3 "" H 4800 4550 50  0000 L CNN
	1    4800 4550
	1    0    0    1   
$EndComp
$Comp
L CONN_01X02 P1
U 1 1 58972C76
P 2350 3600
F 0 "P1" H 2350 3750 50  0000 C CNN
F 1 "INPUT" V 2450 3600 50  0000 C CNN
F 2 "library:JST-B2P-VH" H 2350 3600 50  0001 C CNN
F 3 "" H 2350 3600 50  0000 C CNN
	1    2350 3600
	-1   0    0    -1  
$EndComp
$Comp
L CP C5
U 1 1 5898F663
P 6450 2950
F 0 "C5" H 6475 3050 50  0000 L CNN
F 1 "2200µF 25V" H 6250 2800 50  0000 L CNN
F 2 "library:C_Axial_D19_L40_P48" H 6488 2800 50  0001 C CNN
F 3 "" H 6450 2950 50  0000 C CNN
	1    6450 2950
	1    0    0    -1  
$EndComp
$Comp
L CP C6
U 1 1 5898F6BD
P 6450 4350
F 0 "C6" H 6475 4450 50  0000 L CNN
F 1 "2200µF 25V" H 6250 4200 50  0000 L CNN
F 2 "library:C_Axial_D19_L40_P48" H 6488 4200 50  0001 C CNN
F 3 "" H 6450 4350 50  0000 C CNN
	1    6450 4350
	1    0    0    -1  
$EndComp
$Comp
L C C7
U 1 1 5898FDB6
P 5850 2950
F 0 "C7" H 5875 3050 50  0000 L CNN
F 1 "100nF" H 5750 2850 50  0000 L CNN
F 2 "Capacitors_ThroughHole:C_Rect_L7_W2_P5" H 5888 2800 50  0001 C CNN
F 3 "" H 5850 2950 50  0000 C CNN
	1    5850 2950
	1    0    0    -1  
$EndComp
$Comp
L C C8
U 1 1 5898FE12
P 5850 4350
F 0 "C8" H 5875 4450 50  0000 L CNN
F 1 "100nF" H 5750 4250 50  0000 L CNN
F 2 "Capacitors_ThroughHole:C_Rect_L7_W2_P5" H 5888 4200 50  0001 C CNN
F 3 "" H 5850 4350 50  0000 C CNN
	1    5850 4350
	1    0    0    -1  
$EndComp
$Comp
L R R7
U 1 1 589907F5
P 7450 3400
F 0 "R7" V 7530 3400 50  0000 C CNN
F 1 "3.9K" V 7450 3400 50  0000 C CNN
F 2 "Resistors_ThroughHole:Resistor_Horizontal_RM10mm" V 7380 3400 50  0001 C CNN
F 3 "" H 7450 3400 50  0000 C CNN
	1    7450 3400
	1    0    0    -1  
$EndComp
$Comp
L LED D5
U 1 1 589908BA
P 7450 3900
F 0 "D5" H 7450 4000 50  0000 C CNN
F 1 "RED" H 7450 3800 50  0000 C CNN
F 2 "Pin_Headers:Pin_Header_Straight_1x02" H 7450 3900 50  0001 C CNN
F 3 "" H 7450 3900 50  0000 C CNN
	1    7450 3900
	0    -1   -1   0   
$EndComp
$Comp
L CP C4
U 1 1 586AE3C6
P 6150 4350
F 0 "C4" H 6175 4450 50  0000 L CNN
F 1 "2200µF 25V" H 5950 4550 50  0000 L CNN
F 2 "Capacitors_ThroughHole:C_Radial_D12.5_L25_P5" H 6188 4200 50  0001 C CNN
F 3 "" H 6150 4350 50  0000 C CNN
	1    6150 4350
	1    0    0    -1  
$EndComp
$Comp
L CP C3
U 1 1 586AE3BF
P 6150 2950
F 0 "C3" H 6175 3050 50  0000 L CNN
F 1 "2200µF 25V" H 5950 3150 50  0000 L CNN
F 2 "Capacitors_ThroughHole:C_Radial_D12.5_L25_P5" H 6188 2800 50  0001 C CNN
F 3 "" H 6150 2950 50  0000 C CNN
	1    6150 2950
	1    0    0    -1  
$EndComp
$Comp
L R R8
U 1 1 5958E1C1
P 2900 3400
F 0 "R8" V 2980 3400 50  0000 C CNN
F 1 "3.9K" V 2900 3400 50  0000 C CNN
F 2 "Resistors_ThroughHole:Resistor_Horizontal_RM10mm" V 2830 3400 50  0001 C CNN
F 3 "" H 2900 3400 50  0000 C CNN
	1    2900 3400
	1    0    0    -1  
$EndComp
$Comp
L LED D6
U 1 1 5958E345
P 2900 3900
F 0 "D6" H 2900 4000 50  0000 C CNN
F 1 "BLUE" H 2900 3800 50  0000 C CNN
F 2 "Pin_Headers:Pin_Header_Straight_1x02" H 2900 3900 50  0001 C CNN
F 3 "" H 2900 3900 50  0000 C CNN
	1    2900 3900
	0    -1   -1   0   
$EndComp
$Comp
L OPA134 U1
U 1 1 5D09FB3C
P 3700 3650
F 0 "U1" H 3700 3900 50  0000 L CNN
F 1 "OPA134" H 3700 3800 50  0000 L CNN
F 2 "Housings_DIP:DIP-8_W7.62mm_LongPads" H 3750 3700 50  0001 C CNN
F 3 "" H 3850 3800 50  0000 C CNN
	1    3700 3650
	1    0    0    -1  
$EndComp
$Comp
L POT RV1
U 1 1 5D09FB99
P 3100 3550
F 0 "RV1" H 3100 3470 50  0000 C CNN
F 1 "100" H 3100 3550 50  0000 C CNN
F 2 "Potentiometers:Potentiometer_Bourns_3296W_3-8Zoll_Inline_ScrewUp" H 3100 3550 50  0001 C CNN
F 3 "" H 3100 3550 50  0000 C CNN
	1    3100 3550
	0    1    1    0   
$EndComp
Text Notes 6050 5550 0    60   ~ 0
Multiple footprints for\n2200µF axial or\n470 to 10000µF radial
$Comp
L HEATSINK HS1
U 1 1 5D0B6D11
P 4550 2100
F 0 "HS1" H 4550 2300 50  0000 C CNN
F 1 "HEATSINK" H 4550 2050 50  0000 C CNN
F 2 "myHeatSinks:RAD-DY-GF3" H 4550 2100 50  0001 C CNN
F 3 "" H 4550 2100 50  0000 C CNN
	1    4550 2100
	1    0    0    -1  
$EndComp
$Comp
L CP C9
U 1 1 5D0B73C4
P 6750 2950
F 0 "C9" H 6775 3050 50  0000 L CNN
F 1 "4700µF 25V" H 6550 3150 50  0000 L CNN
F 2 "Capacitors_ThroughHole:C_Radial_D16_L30_P7.5" H 6788 2800 50  0001 C CNN
F 3 "" H 6750 2950 50  0000 C CNN
	1    6750 2950
	1    0    0    -1  
$EndComp
$Comp
L CP C10
U 1 1 5D0B743C
P 6750 4350
F 0 "C10" H 6775 4450 50  0000 L CNN
F 1 "4700µF 25V" H 6550 4550 50  0000 L CNN
F 2 "Capacitors_ThroughHole:C_Radial_D16_L30_P7.5" H 6788 4200 50  0001 C CNN
F 3 "" H 6750 4350 50  0000 C CNN
	1    6750 4350
	1    0    0    -1  
$EndComp
$Comp
L CP C11
U 1 1 5D0B7AC8
P 7050 2950
F 0 "C11" H 7075 3050 50  0000 L CNN
F 1 "10000µF 25V" H 6850 2800 50  0000 L CNN
F 2 "Capacitors_ThroughHole:C_Radial_D22_L41_P10" H 7088 2800 50  0001 C CNN
F 3 "" H 7050 2950 50  0000 C CNN
	1    7050 2950
	1    0    0    -1  
$EndComp
$Comp
L CP C12
U 1 1 5D0B7B46
P 7050 4350
F 0 "C12" H 7075 4450 50  0000 L CNN
F 1 "10000µF 25V" H 6850 4200 50  0000 L CNN
F 2 "Capacitors_ThroughHole:C_Radial_D22_L41_P10" H 7088 4200 50  0001 C CNN
F 3 "" H 7050 4350 50  0000 C CNN
	1    7050 4350
	1    0    0    -1  
$EndComp
$Comp
L SW_DPDT_x2 SW1
U 1 1 5D0BA04F
P 7400 5150
F 0 "SW1" H 7400 5320 50  0000 C CNN
F 1 "OUTPUT" H 7400 4950 50  0000 C CNN
F 2 "mySwitches:SWITCH_DPDT_7201MD9ABE" H 7400 5150 50  0001 C CNN
F 3 "" H 7400 5150 50  0001 C CNN
	1    7400 5150
	-1   0    0    1   
$EndComp
$Comp
L SW_DPDT_x2 SW1
U 2 1 5D0BA330
P 7400 2350
F 0 "SW1" H 7400 2520 50  0000 C CNN
F 1 "OUTPUT" H 7400 2150 50  0000 C CNN
F 2 "mySwitches:SWITCH_DPDT_7201MD9ABE" H 7400 2350 50  0001 C CNN
F 3 "" H 7400 2350 50  0001 C CNN
	2    7400 2350
	-1   0    0    1   
$EndComp
$Comp
L HEATSINK HS2
U 1 1 5D0CE45C
P 4550 5200
F 0 "HS2" H 4550 5400 50  0000 C CNN
F 1 "HEATSINK" H 4550 5150 50  0000 C CNN
F 2 "myHeatSinks:RAD-DY-GF3" H 4550 5200 50  0001 C CNN
F 3 "" H 4550 5200 50  0000 C CNN
	1    4550 5200
	-1   0    0    1   
$EndComp
$Comp
L CONN_01X02 P3
U 1 1 5D0DEF24
P 2350 4000
F 0 "P3" H 2350 4150 50  0000 C CNN
F 1 "INPUT" V 2450 4000 50  0000 C CNN
F 2 "myConnectors:NINIGI_NS25-W2P" H 2350 4000 50  0001 C CNN
F 3 "" H 2350 4000 50  0000 C CNN
	1    2350 4000
	-1   0    0    -1  
$EndComp
$Comp
L CONN_01X03 P4
U 1 1 5D0DF1FD
P 8050 4150
F 0 "P4" H 8050 4350 50  0000 C CNN
F 1 "OUTPUT" V 8150 4150 50  0000 C CNN
F 2 "myConnectors:NINIGI_NS25-W3P" H 8050 4150 50  0001 C CNN
F 3 "" H 8050 4150 50  0000 C CNN
	1    8050 4150
	1    0    0    -1  
$EndComp
$Comp
L +VCC #PWR04
U 1 1 5D0F6A94
P 5500 2150
F 0 "#PWR04" H 5500 2000 50  0001 C CNN
F 1 "+VCC" H 5500 2300 50  0000 C CNN
F 2 "" H 5500 2150 50  0000 C CNN
F 3 "" H 5500 2150 50  0000 C CNN
	1    5500 2150
	1    0    0    -1  
$EndComp
$Comp
L -VCC #PWR05
U 1 1 5D0F6AF4
P 5500 5150
F 0 "#PWR05" H 5500 5000 50  0001 C CNN
F 1 "-VCC" H 5500 5300 50  0000 C CNN
F 2 "" H 5500 5150 50  0000 C CNN
F 3 "" H 5500 5150 50  0000 C CNN
	1    5500 5150
	-1   0    0    1   
$EndComp
$Comp
L HEATSINK HS3
U 1 1 5D0F77A9
P 4950 2100
F 0 "HS3" H 4950 2300 50  0000 C CNN
F 1 "HEATSINK" H 4950 2050 50  0000 C CNN
F 2 "myHeatSinks:RAD-DY-KY3" H 4950 2100 50  0001 C CNN
F 3 "" H 4950 2100 50  0000 C CNN
	1    4950 2100
	1    0    0    -1  
$EndComp
$Comp
L HEATSINK HS4
U 1 1 5D0F783C
P 4950 5200
F 0 "HS4" H 4950 5400 50  0000 C CNN
F 1 "HEATSINK" H 4950 5150 50  0000 C CNN
F 2 "myHeatSinks:RAD-DY-KY3" H 4950 5200 50  0001 C CNN
F 3 "" H 4950 5200 50  0000 C CNN
	1    4950 5200
	-1   0    0    1   
$EndComp
$Comp
L TIP122 Q3
U 1 1 5D0F8886
P 4500 2500
F 0 "Q3" H 4750 2575 50  0000 L CNN
F 1 "TIP120" H 4750 2500 50  0000 L CNN
F 2 "TO_SOT_Packages_THT:TO-220_Neutral123_Vertical" H 4450 2750 50  0001 L CIN
F 3 "" H 4500 2500 50  0000 L CNN
	1    4500 2500
	1    0    0    -1  
$EndComp
$Comp
L TIP127 Q4
U 1 1 5D0F894E
P 4500 4800
F 0 "Q4" H 4750 4875 50  0000 L CNN
F 1 "TIP125" H 4750 4800 50  0000 L CNN
F 2 "TO_SOT_Packages_THT:TO-220_Neutral123_Vertical" H 4450 5000 50  0001 L CIN
F 3 "" H 4500 4800 50  0000 L CNN
	1    4500 4800
	1    0    0    1   
$EndComp
Text Notes 4300 5650 0    60   ~ 0
2 footprints for\n2 different heatsinks
Text Notes 2150 5300 0    60   ~ 0
2 footprints for\n2.54 or 3.96 connectors
Wire Wire Line
	2700 5050 7200 5050
Wire Wire Line
	2650 2250 7200 2250
Wire Wire Line
	2550 3650 2700 3650
Wire Wire Line
	2650 3550 2550 3550
Wire Wire Line
	3300 3750 3300 4100
Wire Wire Line
	2700 3650 2700 5050
Wire Wire Line
	2650 2250 2650 3950
Connection ~ 5500 2250
Wire Wire Line
	5500 3100 5500 4200
Connection ~ 5500 3650
Wire Wire Line
	5500 4500 5500 5150
Connection ~ 5500 5050
Wire Wire Line
	5500 2150 5500 2800
Wire Wire Line
	4900 2950 4900 3250
Wire Wire Line
	4900 3550 4900 3750
Wire Wire Line
	4900 4050 4900 4350
Wire Wire Line
	4900 4750 4900 5050
Connection ~ 4900 5050
Wire Wire Line
	4900 2550 4900 2250
Connection ~ 4900 2250
Connection ~ 4900 3650
Wire Wire Line
	4000 3650 4100 3650
Wire Wire Line
	4100 3550 4100 3750
Connection ~ 4100 3650
Wire Wire Line
	4100 4450 4100 4650
Wire Wire Line
	4100 4550 4600 4550
Wire Wire Line
	4100 2650 4100 2850
Wire Wire Line
	4100 2750 4600 2750
Wire Wire Line
	5200 3650 5200 4100
Connection ~ 5200 3650
Wire Wire Line
	3100 2950 3100 2250
Connection ~ 3100 2250
Wire Wire Line
	3600 2250 3600 3350
Connection ~ 3600 2250
Wire Wire Line
	3600 5050 3600 3950
Connection ~ 3600 5050
Wire Wire Line
	3100 5050 3100 4350
Connection ~ 3100 5050
Wire Wire Line
	5200 4100 3300 4100
Connection ~ 4100 4550
Wire Wire Line
	4100 4950 4100 5050
Connection ~ 4100 5050
Wire Wire Line
	4100 2250 4100 2350
Connection ~ 4100 2250
Connection ~ 4100 2750
Connection ~ 6150 5050
Wire Wire Line
	4900 3650 7850 3650
Wire Wire Line
	6900 3650 6900 3850
Connection ~ 6900 3650
Wire Wire Line
	3300 3750 3400 3750
Wire Wire Line
	4100 3150 4100 3250
Wire Wire Line
	4100 4050 4100 4150
Wire Wire Line
	6450 2250 6450 2800
Connection ~ 6450 2250
Wire Wire Line
	6450 3100 6450 4200
Connection ~ 6450 3650
Wire Wire Line
	6450 4500 6450 5050
Connection ~ 6450 5050
Wire Wire Line
	5850 2250 5850 2800
Connection ~ 5850 2250
Wire Wire Line
	5850 3100 5850 4200
Connection ~ 5850 3650
Wire Wire Line
	5850 4500 5850 5050
Connection ~ 5850 5050
Wire Wire Line
	7600 2350 7750 2350
Wire Wire Line
	7750 2350 7750 4050
Wire Wire Line
	7750 3550 7850 3550
Wire Wire Line
	7850 3750 7700 3750
Wire Wire Line
	7450 3550 7450 3700
Wire Wire Line
	7450 4100 7450 4400
Wire Wire Line
	7450 4400 7700 4400
Wire Wire Line
	7450 3250 7450 3000
Wire Wire Line
	7450 3000 7750 3000
Connection ~ 7750 3000
Wire Wire Line
	6150 5050 6150 4500
Connection ~ 6150 3650
Wire Wire Line
	6150 3100 6150 4200
Connection ~ 6150 2250
Wire Wire Line
	6150 2250 6150 2800
Wire Wire Line
	2900 3250 2900 2900
Wire Wire Line
	2900 2900 2650 2900
Connection ~ 2650 2900
Wire Wire Line
	2900 3550 2900 3700
Wire Wire Line
	2900 4100 2900 4500
Wire Wire Line
	2900 4500 2700 4500
Connection ~ 2700 4500
Wire Wire Line
	3100 4050 3100 3700
Wire Wire Line
	3100 3400 3100 3250
Wire Wire Line
	3250 3550 3400 3550
Wire Wire Line
	6750 2800 6750 2250
Connection ~ 6750 2250
Wire Wire Line
	6750 3100 6750 4200
Connection ~ 6750 3650
Wire Wire Line
	6750 4500 6750 5050
Connection ~ 6750 5050
Wire Wire Line
	7050 5050 7050 4500
Connection ~ 7050 5050
Wire Wire Line
	7050 3100 7050 4200
Connection ~ 7050 3650
Wire Wire Line
	7050 2250 7050 2800
Connection ~ 7050 2250
Wire Wire Line
	2650 3950 2550 3950
Connection ~ 2650 3550
Wire Wire Line
	2550 4050 2700 4050
Connection ~ 2700 4050
Wire Wire Line
	7750 4050 7850 4050
Connection ~ 7750 3550
Wire Wire Line
	7850 4250 7700 4250
Connection ~ 7700 4250
Wire Wire Line
	7850 4150 7650 4150
Wire Wire Line
	7650 4150 7650 3650
Connection ~ 7650 3650
Wire Wire Line
	4600 2300 4600 2250
Connection ~ 4600 2250
Wire Wire Line
	4600 2700 4600 3050
Wire Wire Line
	4600 3050 4900 3050
Connection ~ 4900 3050
Wire Wire Line
	4600 5000 4600 5050
Connection ~ 4600 5050
Wire Wire Line
	4600 4600 4600 4250
Wire Wire Line
	4600 4250 4900 4250
Connection ~ 4900 4250
Wire Wire Line
	4300 4800 4250 4800
Wire Wire Line
	4250 4800 4250 4550
Connection ~ 4250 4550
Wire Wire Line
	4300 2500 4250 2500
Wire Wire Line
	4250 2500 4250 2750
Connection ~ 4250 2750
Wire Notes Line
	6000 5500 6000 5600
Wire Notes Line
	6000 5600 7100 5600
Wire Notes Line
	7100 5600 7100 5500
Wire Wire Line
	7700 3750 7700 5150
Connection ~ 7700 4400
Wire Wire Line
	7700 5150 7600 5150
Wire Notes Line
	4200 5600 4200 5700
Wire Notes Line
	4200 5700 5300 5700
Wire Notes Line
	5300 5700 5300 5600
Wire Notes Line
	2100 5250 2100 5350
Text Notes 7650 5400 0    60   ~ 0
2 footprints for\n2.54 or 3.96 connectors
Wire Notes Line
	7600 5350 7600 5450
Wire Notes Line
	7600 5450 8800 5450
Wire Notes Line
	8800 5450 8800 5350
Wire Notes Line
	2100 5350 3300 5350
Wire Notes Line
	3300 5350 3300 5250
$EndSCHEMATC
